…
The R package 'extraclassical' allows for an analysis of extraclassical effects in images and is still under development. It may be installed using 'devtools':

``` r
# install.packages("devtools")
devtools::install_github("sflippl/extraclassical")
```

It provides an interface to the CIFAR-10 dataset (Krizhevsky 2009) using the function 'read\_cifar' and has the first batch of the dataset directly available for analysis:

``` r
cifar_10_1
#> # A tibble: 10,000 x 7
#>    filename              batch label red       green     blue      bw      
#>    <chr>                 <chr> <int> <list>    <list>    <list>    <list>  
#>  1 leptodactylus_pentad… 1         6 <dbl [32… <dbl [32… <dbl [32… <dbl [3…
#>  2 camion_s_000148.png   1         9 <dbl [32… <dbl [32… <dbl [32… <dbl [3…
#>  3 tipper_truck_s_00125… 1         9 <dbl [32… <dbl [32… <dbl [32… <dbl [3…
#>  4 american_elk_s_00152… 1         4 <dbl [32… <dbl [32… <dbl [32… <dbl [3…
#>  5 station_wagon_s_0002… 1         1 <dbl [32… <dbl [32… <dbl [32… <dbl [3…
#>  6 coupe_s_001735.png    1         1 <dbl [32… <dbl [32… <dbl [32… <dbl [3…
#>  7 cassowary_s_001300.p… 1         2 <dbl [32… <dbl [32… <dbl [32… <dbl [3…
#>  8 cow_pony_s_001168.png 1         7 <dbl [32… <dbl [32… <dbl [32… <dbl [3…
#>  9 sea_boat_s_001584.png 1         8 <dbl [32… <dbl [32… <dbl [32… <dbl [3…
#> 10 tabby_s_001355.png    1         3 <dbl [32… <dbl [32… <dbl [32… <dbl [3…
#> # … with 9,990 more rows
```
…
